{
    "api": "web",
    "config_datetime_update": "2021-01-25T05:25:15.428758Z",
    "datetime_update": "2021-01-25T05:25:15.428758Z",
    "dict_datetime_update": "2021-01-25T06:04:04.583037Z",
    "filter_update": {
        "category": "2021-01-19T10:58:27.894661Z",
        "provider": "2021-01-21T06:46:27.558094Z",
        "instructor": "2021-01-22T11:38:52.554923Z"
    },
    "next": 2,
    "next_url": "https://release.conicle.co/api/course/16529/discussion/?page=2",
    "previous": null,
    "previous_url": null,
    "count": 80,
    "page_size": 24,
    "results": [
        {
            "id": 126,
            "body": "<div>Sysadmin and I s</div>\n<div>Skdjjd</div>",
            "parent": null,
            "is_edited": true,
            "is_deletable": true,
            "is_editable": true,
            "is_pinned": true,
            "is_liked": true,
            "count_likes": 1,
            "count_replies": 0,
            "datetime_create": "2021-01-21T17:25:52.477894+07:00",
            "datetime_update": "2021-01-25T17:09:58.730672+07:00",
            "author_role": "User",
            "author": {
                "id": 73,
                "name": "Songwut Maneefun",
                "image": "https://release.conicle.co/media/account/2019/07/image_73.png"
            },
            "reply_list": []
        },
        {
            "id": 171,
            "body": "<ul><li><span style=\"font-size: 12pt; -webkit-text-size-adjust: 100%;\">Dgdhhdjdhdhdd</span><br></li><li><span style=\"font-size: 12pt; -webkit-text-size-adjust: 100%;\">Hdjddjdkd</span></li></ul><ol><li><span style=\"-webkit-text-size-adjust: 100%;\">Hdjddjd</span></li><li><span style=\"-webkit-text-size-adjust: 100%;\">Ndjd</span></li></ol><span style=\"-webkit-text-size-adjust: 100%;\">Djjdjkx</span>",
            "parent": null,
            "is_edited": false,
            "is_deletable": true,
            "is_editable": true,
            "is_pinned": false,
            "is_liked": false,
            "count_likes": 0,
            "count_replies": 0,
            "datetime_create": "2021-01-25T17:56:53.856464+07:00",
            "datetime_update": "2021-01-25T17:56:53.856006+07:00",
            "author_role": "User",
            "author": {
                "id": 73,
                "name": "Songwut Maneefun",
                "image": "https://release.conicle.co/media/account/2019/07/image_73.png"
            },
            "reply_list": []
        },
        {
            "id": 170,
            "body": "<ul><li><span style=\"font-size: 12pt; -webkit-text-size-adjust: 100%;\">Hhddhdhdd</span><br></li><li><span style=\"font-size: 12pt; -webkit-text-size-adjust: 100%;\">Hdhd</span></li><li><span style=\"font-size: 12pt; -webkit-text-size-adjust: 100%;\">Jd</span></li></ul><ol><li><span style=\"-webkit-text-size-adjust: 100%;\">Hdhd</span></li><li><span style=\"-webkit-text-size-adjust: 100%;\">Hdhhd</span></li></ol>",
            "parent": null,
            "is_edited": false,
            "is_deletable": true,
            "is_editable": true,
            "is_pinned": false,
            "is_liked": false,
            "count_likes": 0,
            "count_replies": 0,
            "datetime_create": "2021-01-25T17:37:32.493091+07:00",
            "datetime_update": "2021-01-25T17:37:32.493042+07:00",
            "author_role": "User",
            "author": {
                "id": 73,
                "name": "Songwut Maneefun",
                "image": "https://release.conicle.co/media/account/2019/07/image_73.png"
            },
            "reply_list": []
        },
        {
            "id": 169,
            "body": "Hdhhdjfd",
            "parent": null,
            "is_edited": false,
            "is_deletable": true,
            "is_editable": true,
            "is_pinned": false,
            "is_liked": false,
            "count_likes": 0,
            "count_replies": 0,
            "datetime_create": "2021-01-25T17:34:13.388821+07:00",
            "datetime_update": "2021-01-25T17:34:13.388760+07:00",
            "author_role": "User",
            "author": {
                "id": 73,
                "name": "Songwut Maneefun",
                "image": "https://release.conicle.co/media/account/2019/07/image_73.png"
            },
            "reply_list": []
        },
        {
            "id": 165,
            "body": "Hdhhdd",
            "parent": null,
            "is_edited": false,
            "is_deletable": true,
            "is_editable": true,
            "is_pinned": false,
            "is_liked": false,
            "count_likes": 0,
            "count_replies": 0,
            "datetime_create": "2021-01-25T16:36:17.759333+07:00",
            "datetime_update": "2021-01-25T16:36:17.759260+07:00",
            "author_role": "User",
            "author": {
                "id": 73,
                "name": "Songwut Maneefun",
                "image": "https://release.conicle.co/media/account/2019/07/image_73.png"
            },
            "reply_list": []
        },
        {
            "id": 164,
            "body": "Jejdj and the otherfggg gg",
            "parent": null,
            "is_edited": true,
            "is_deletable": true,
            "is_editable": true,
            "is_pinned": false,
            "is_liked": false,
            "count_likes": 0,
            "count_replies": 0,
            "datetime_create": "2021-01-25T16:27:27.840368+07:00",
            "datetime_update": "2021-01-25T16:29:10.312822+07:00",
            "author_role": "User",
            "author": {
                "id": 73,
                "name": "Songwut Maneefun",
                "image": "https://release.conicle.co/media/account/2019/07/image_73.png"
            },
            "reply_list": []
        },
        {
            "id": 163,
            "body": "<ul><li>dddd</li><li>dddd</li></ul><div><br></div><div><ol><li>ffff</li><li>ffff</li></ol></div>",
            "parent": null,
            "is_edited": false,
            "is_deletable": false,
            "is_editable": false,
            "is_pinned": false,
            "is_liked": false,
            "count_likes": 0,
            "count_replies": 0,
            "datetime_create": "2021-01-25T12:05:43.637314+07:00",
            "datetime_update": "2021-01-25T12:05:43.637272+07:00",
            "author_role": "User",
            "author": {
                "id": 9,
                "name": "Android 02 Application",
                "image": "https://release.conicle.co/media/account/2019/05/9cd317d2-61b.jpg"
            },
            "reply_list": []
        },
        {
            "id": 162,
            "body": "<ul>\n<li>ddd</li>\n<li>dddd</li>\n</ul>\n<div>&#160;</div>\n<ol>\n<li>fff</li>\n<li>ffff</li>\n</ol>",
            "parent": null,
            "is_edited": false,
            "is_deletable": false,
            "is_editable": false,
            "is_pinned": false,
            "is_liked": false,
            "count_likes": 0,
            "count_replies": 0,
            "datetime_create": "2021-01-25T11:55:22.856799+07:00",
            "datetime_update": "2021-01-25T11:55:22.856758+07:00",
            "author_role": "User",
            "author": {
                "id": 9,
                "name": "Android 02 Application",
                "image": "https://release.conicle.co/media/account/2019/05/9cd317d2-61b.jpg"
            },
            "reply_list": []
        },
        {
            "id": 161,
            "body": "<div style=\"max-width: 100%;\"><strong>1&#160;<em>2</em></strong>&#160;<span style=\"text-decoration: underline;\">3</span></div>\n<div style=\"max-width: 100%;\">&#160;</div>\n<ul>\n<li>12</li>\n</ul>\n<ol>\n<li>1</li>\n<li>2</li>\n</ol>\n<div>&#160;</div>\n<div><a style=\"max-width: 100%;\" href=\"http://www.google.com\" target=\"_blank\" rel=\"noopener\">www.google.com</a></div>\n<div>&#160;</div>\n<div>&#128512;</div>\n<div>&#160;</div>\n<div style=\"text-align: center;\">T</div>",
            "parent": null,
            "is_edited": false,
            "is_deletable": false,
            "is_editable": false,
            "is_pinned": false,
            "is_liked": false,
            "count_likes": 0,
            "count_replies": 0,
            "datetime_create": "2021-01-25T11:50:44.368958+07:00",
            "datetime_update": "2021-01-25T11:50:44.368913+07:00",
            "author_role": "Instructor",
            "author": {
                "id": 115,
                "name": "pongdanai prasawang",
                "image": null
            },
            "reply_list": []
        },
        {
            "id": 159,
            "body": "<div>&#128514;</div>",
            "parent": null,
            "is_edited": false,
            "is_deletable": false,
            "is_editable": false,
            "is_pinned": false,
            "is_liked": false,
            "count_likes": 0,
            "count_replies": 0,
            "datetime_create": "2021-01-25T11:42:11.080219+07:00",
            "datetime_update": "2021-01-25T11:42:11.080167+07:00",
            "author_role": "Instructor",
            "author": {
                "id": 115,
                "name": "pongdanai prasawang",
                "image": null
            },
            "reply_list": []
        },
        {
            "id": 157,
            "body": "<ol><li>dfdsf</li><li>fdfdsf</li><li>sdff</li></ol>",
            "parent": null,
            "is_edited": false,
            "is_deletable": false,
            "is_editable": false,
            "is_pinned": false,
            "is_liked": false,
            "count_likes": 0,
            "count_replies": 0,
            "datetime_create": "2021-01-25T11:39:00.469292+07:00",
            "datetime_update": "2021-01-25T11:39:00.469245+07:00",
            "author_role": "User",
            "author": {
                "id": 9,
                "name": "Android 02 Application",
                "image": "https://release.conicle.co/media/account/2019/05/9cd317d2-61b.jpg"
            },
            "reply_list": []
        },
        {
            "id": 156,
            "body": "dkjfklsdjfklsd",
            "parent": null,
            "is_edited": false,
            "is_deletable": false,
            "is_editable": false,
            "is_pinned": false,
            "is_liked": false,
            "count_likes": 0,
            "count_replies": 0,
            "datetime_create": "2021-01-25T11:38:27.683793+07:00",
            "datetime_update": "2021-01-25T11:38:27.683750+07:00",
            "author_role": "User",
            "author": {
                "id": 9,
                "name": "Android 02 Application",
                "image": "https://release.conicle.co/media/account/2019/05/9cd317d2-61b.jpg"
            },
            "reply_list": []
        },
        {
            "id": 155,
            "body": "Lorem ipsum dolor sit amet, consectetuer adipiscing elit. Aenean commodo ligula eget dolor. Aenean massa. Cum sociis natoque penatibus et magnis dis parturient montes, nascetur ridiculus mus. Donec quam felis, ultricies nec, pellentesque eu, pretium quis, sem. Nulla consequat massa quis enim. Donec pede justo, fringilla vel, aliquet nec, vulputate eget, arcu. In enim justo, rhoncus ut, imperdiet a, venenatis vitae, justo. Nullam dictum felis eu pede mollis pretium. Integer tincidunt. Cras dapibus. Vivamus elementum semper nisi. Aenean vulputate eleifend tellus. Aenean leo ligula, porttitor eu, consequat vitae, eleifend ac, enim. Aliquam lorem ante, dapibus in, viverra quis, feugiat a, tellus. Phasellus viverra nulla ut metus varius laoreet. Quisque rutrum. Aenean imperdiet. Etiam ultricies nisi vel augue. Curabitur ullamcorper ultricies nisi. Nam eget dui. Etiam rhoncus. Maecenas tempus, tellus eget condimentum rhoncus, sem quam semper libero, sit amet adipiscing sem neque sed ipsum. Nam quam nunc, blandit vel, luctus pulvinar, hendrerit id, lorem. Maecenas nec odio et ante tincidunt tempus. Donec vitae sapien ut libero venenatis faucibus. Nullam quis ante. Etiam sit amet orci eget eros faucibus tincidunt. Duis leo. Sed fringilla mauris sit amet nibh. Donec sodales sagittis magna. Sed consequat, leo eget bibendum sodales, augue velit cursus nunc, quis gravida magna mi a libero. Fusce vulputate eleifend sapien. Vestibulum purus quam, scelerisque ut, mollis sed, nonummy id, metus. Nullam accumsan lorem in dui. Cras ultricies mi eu turpis hendrerit fringilla. Vestibulum ante ipsum primis in faucibus orci luctus et ultrices posuere cubilia Curae; In ac dui quis mi consectetuer lacinia. Nam pretium turpis et arcu. Duis arcu tortor, suscipit eget, imperdiet nec, imperdiet iaculis, ipsum. Sed aliquam ultrices mauris. Integer ante arcu, accumsan a, consectetuer eget, posuere ut, mauris. Praesent adipiscing. Phasellus ullamcorper ipsum rutrum nunc. Nunc nonummy metus. Vestibulum volutpat pretium libero. Cras id dui. Aenean ut eros et nisl sagittis vestibulum. Nullam nulla eros, ultricies sit amet, nonummy id, imperdiet feugiat, pede. Sed lectus. Donec mollis hendrerit risus. Phasellus nec sem in justo pellentesque facilisis. Etiam imperdiet imperdiet orci. Nunc nec neque. Phasellus leo dolor, tempus non, auctor et, hendrerit quis, nisi. Curabitur ligula sapien, tincidunt non, euismod vitae, posuere imperdiet, leo. Maecenas malesuada. Praesent congue erat at massa. Sed cursus turpis vitae tortor. Donec posuere vulputate arcu. Phasellus accumsan cursus velit. Vestibulum ante ipsum primis in faucibus orci luctus et ultrices posuere cubilia Curae; Sed aliquam, nisi quis porttitor congue, elit erat euismod orci, ac placerat dolor lectus quis orci. Phasellus consectetuer vestibulum elit. Aenean tellus metus, bibendum sed, posuere ac, mattis non, nunc. Vestibulum fringilla pede sit amet augue. In turpis. Pellentesque posuere. Praesent turpis. Aenean posuere, tortor sed cursus feugiat, nunc augue blandit nunc, eu sollicitudin urna dolor sagittis lacus. Donec elit libero, sodales nec, volutpat a, suscipit non, turpis. Nullam sagittis. Suspendisse pulvinar, augue ac venenatis condimentum, sem libero volutpat nibh, nec pellentesque velit pede quis nunc. Vestibulum ante ipsum primis in faucibus orci luctus et ultrices posuere cubilia Curae; Fusce id purus. Ut varius tincidunt libero. Phasellus dolor. Maecenas vestibulum mollisfldkjfl;sdkflkdlfkdsl;fkdlskfl;dskfl;ksd;lfkdsl;kfl;dskfl;ksdflkdslfkdlskf;ldskfl;dskfl;dkfl;dkslf;kdsl;fkl;sdkfl;dskfl;ld<br><br><ul><li>kkdfd</li><li>df</li><li>df</li></ul><ol><li>dfdd</li><li>d</li><li>d</li><li>d</li><li>d</li><li><br></li></ol>",
            "parent": null,
            "is_edited": false,
            "is_deletable": false,
            "is_editable": false,
            "is_pinned": false,
            "is_liked": false,
            "count_likes": 0,
            "count_replies": 0,
            "datetime_create": "2021-01-25T11:38:04.841626+07:00",
            "datetime_update": "2021-01-25T11:38:04.841575+07:00",
            "author_role": "User",
            "author": {
                "id": 9,
                "name": "Android 02 Application",
                "image": "https://release.conicle.co/media/account/2019/05/9cd317d2-61b.jpg"
            },
            "reply_list": []
        },
        {
            "id": 154,
            "body": "<a href=\"www.google.com\">www.googledddddd.com</a><a href=\"www.google.com\">www.google.com</a>",
            "parent": null,
            "is_edited": true,
            "is_deletable": false,
            "is_editable": false,
            "is_pinned": false,
            "is_liked": false,
            "count_likes": 0,
            "count_replies": 0,
            "datetime_create": "2021-01-25T11:31:11.849195+07:00",
            "datetime_update": "2021-01-25T11:32:18.876028+07:00",
            "author_role": "User",
            "author": {
                "id": 9,
                "name": "Android 02 Application",
                "image": "https://release.conicle.co/media/account/2019/05/9cd317d2-61b.jpg"
            },
            "reply_list": []
        },
        {
            "id": 153,
            "body": "<a href=\"www.google.coom\">www.google.coom</a>",
            "parent": null,
            "is_edited": false,
            "is_deletable": false,
            "is_editable": false,
            "is_pinned": false,
            "is_liked": false,
            "count_likes": 0,
            "count_replies": 0,
            "datetime_create": "2021-01-25T11:30:37.176444+07:00",
            "datetime_update": "2021-01-25T11:30:37.176401+07:00",
            "author_role": "User",
            "author": {
                "id": 9,
                "name": "Android 02 Application",
                "image": "https://release.conicle.co/media/account/2019/05/9cd317d2-61b.jpg"
            },
            "reply_list": []
        },
        {
            "id": 152,
            "body": "ww<a href=\"www.google.com\">www.google.com</a><a href=\"www.google.com\">google.com</a>&nbsp;Google&nbsp;<a href=\"www.google.com\">www.google.com</a>",
            "parent": null,
            "is_edited": false,
            "is_deletable": false,
            "is_editable": false,
            "is_pinned": false,
            "is_liked": false,
            "count_likes": 0,
            "count_replies": 0,
            "datetime_create": "2021-01-25T11:30:07.015483+07:00",
            "datetime_update": "2021-01-25T11:30:07.015441+07:00",
            "author_role": "User",
            "author": {
                "id": 9,
                "name": "Android 02 Application",
                "image": "https://release.conicle.co/media/account/2019/05/9cd317d2-61b.jpg"
            },
            "reply_list": []
        },
        {
            "id": 151,
            "body": "www.google.com",
            "parent": null,
            "is_edited": false,
            "is_deletable": false,
            "is_editable": false,
            "is_pinned": false,
            "is_liked": false,
            "count_likes": 0,
            "count_replies": 0,
            "datetime_create": "2021-01-25T11:28:47.799424+07:00",
            "datetime_update": "2021-01-25T11:28:47.799378+07:00",
            "author_role": "User",
            "author": {
                "id": 9,
                "name": "Android 02 Application",
                "image": "https://release.conicle.co/media/account/2019/05/9cd317d2-61b.jpg"
            },
            "reply_list": []
        },
        {
            "id": 143,
            "body": "<ul><li><span style=\"font-size: 12pt; -webkit-text-size-adjust: 100%;\">Eeee</span><br></li><li><span style=\"font-size: 12pt; -webkit-text-size-adjust: 100%;\">Ffff</span></li></ul>",
            "parent": null,
            "is_edited": false,
            "is_deletable": true,
            "is_editable": true,
            "is_pinned": false,
            "is_liked": false,
            "count_likes": 0,
            "count_replies": 0,
            "datetime_create": "2021-01-25T10:16:57.373303+07:00",
            "datetime_update": "2021-01-25T10:16:57.373261+07:00",
            "author_role": "User",
            "author": {
                "id": 73,
                "name": "Songwut Maneefun",
                "image": "https://release.conicle.co/media/account/2019/07/image_73.png"
            },
            "reply_list": []
        },
        {
            "id": 140,
            "body": "<div><a href=\"https://release.conicle.co/course/16529/discussion/www.Facebook.com\">www.Faceboossssskss.com</a></div><div><br></div><div><ul><li>ddddd</li></ul></div>",
            "parent": null,
            "is_edited": true,
            "is_deletable": false,
            "is_editable": false,
            "is_pinned": false,
            "is_liked": false,
            "count_likes": 0,
            "count_replies": 1,
            "datetime_create": "2021-01-25T00:28:41.900224+07:00",
            "datetime_update": "2021-01-25T01:04:54.054062+07:00",
            "author_role": "User",
            "author": {
                "id": 9,
                "name": "Android 02 Application",
                "image": "https://release.conicle.co/media/account/2019/05/9cd317d2-61b.jpg"
            },
            "reply_list": [
                {
                    "id": 141,
                    "body": "google.comdddd dddd",
                    "parent": 140,
                    "is_edited": true,
                    "is_deletable": false,
                    "is_editable": false,
                    "is_pinned": false,
                    "is_liked": false,
                    "count_likes": 0,
                    "count_replies": 0,
                    "datetime_create": "2021-01-25T01:05:11.263545+07:00",
                    "datetime_update": "2021-01-25T01:05:19.424567+07:00",
                    "author_role": "User",
                    "author": {
                        "id": 9,
                        "name": "Android 02 Application",
                        "image": "https://release.conicle.co/media/account/2019/05/9cd317d2-61b.jpg"
                    },
                    "reply_list": []
                }
            ]
        },
        {
            "id": 139,
            "body": "<div><a href=\"https://release.conicle.co/course/16529/discussion/www.google.com\">googleefffff</a></div>",
            "parent": null,
            "is_edited": true,
            "is_deletable": false,
            "is_editable": false,
            "is_pinned": false,
            "is_liked": false,
            "count_likes": 0,
            "count_replies": 0,
            "datetime_create": "2021-01-25T00:25:57.982370+07:00",
            "datetime_update": "2021-01-25T00:26:45.593097+07:00",
            "author_role": "User",
            "author": {
                "id": 9,
                "name": "Android 02 Application",
                "image": "https://release.conicle.co/media/account/2019/05/9cd317d2-61b.jpg"
            },
            "reply_list": []
        },
        {
            "id": 138,
            "body": "<div><a style=\"max-width: 100%;\" href=\"https://www.google.com/\" target=\"_blank\" rel=\"noopener\">https://www.google.com/</a></div>",
            "parent": null,
            "is_edited": false,
            "is_deletable": false,
            "is_editable": false,
            "is_pinned": false,
            "is_liked": false,
            "count_likes": 0,
            "count_replies": 0,
            "datetime_create": "2021-01-24T23:55:33.389827+07:00",
            "datetime_update": "2021-01-24T23:55:33.389339+07:00",
            "author_role": "User",
            "author": {
                "id": 9,
                "name": "Android 02 Application",
                "image": "https://release.conicle.co/media/account/2019/05/9cd317d2-61b.jpg"
            },
            "reply_list": []
        },
        {
            "id": 130,
            "body": "<div><a style=\"max-width: 100%;\" href=\"https://www.google.com/\" target=\"_blank\" rel=\"noopener\">https://www.google.com/</a>dfdjf dljfdsjflkj<a href=\"https://www.google.com/\" target=\"_blank\" rel=\"noopener\">https://www.google.com/</a></div>",
            "parent": null,
            "is_edited": false,
            "is_deletable": false,
            "is_editable": false,
            "is_pinned": false,
            "is_liked": true,
            "count_likes": 1,
            "count_replies": 6,
            "datetime_create": "2021-01-21T18:52:19.012742+07:00",
            "datetime_update": "2021-01-21T18:52:19.012690+07:00",
            "author_role": "User",
            "author": {
                "id": 9,
                "name": "Android 02 Application",
                "image": "https://release.conicle.co/media/account/2019/05/9cd317d2-61b.jpg"
            },
            "reply_list": [
                {
                    "id": 136,
                    "body": "<div style=\"max-width: 100%;\">5 It is a long established fact that a reader will be distracted by the readable content of a page when looking at its layout. The point of using Lorem Ipsum is that it has a more-or-less normal distribution of letters</div>",
                    "parent": 130,
                    "is_edited": false,
                    "is_deletable": true,
                    "is_editable": true,
                    "is_pinned": false,
                    "is_liked": false,
                    "count_likes": 0,
                    "count_replies": 0,
                    "datetime_create": "2021-01-23T00:39:00.763949+07:00",
                    "datetime_update": "2021-01-23T00:39:00.763903+07:00",
                    "author_role": "User",
                    "author": {
                        "id": 73,
                        "name": "Songwut Maneefun",
                        "image": "https://release.conicle.co/media/account/2019/07/image_73.png"
                    },
                    "reply_list": []
                },
                {
                    "id": 137,
                    "body": "<div style=\"max-width: 100%;\">6 It is a long established fact that a reader will be</div>",
                    "parent": 130,
                    "is_edited": false,
                    "is_deletable": true,
                    "is_editable": true,
                    "is_pinned": false,
                    "is_liked": false,
                    "count_likes": 0,
                    "count_replies": 0,
                    "datetime_create": "2021-01-23T00:39:12.136610+07:00",
                    "datetime_update": "2021-01-23T00:39:12.136569+07:00",
                    "author_role": "User",
                    "author": {
                        "id": 73,
                        "name": "Songwut Maneefun",
                        "image": "https://release.conicle.co/media/account/2019/07/image_73.png"
                    },
                    "reply_list": []
                }
            ]
        },
        {
            "id": 129,
            "body": "<div><a style=\"max-width: 100%;\" href=\"https://www.google.com/\" target=\"_blank\" rel=\"noopener\">https://www.google.com/ffff</a></div>",
            "parent": null,
            "is_edited": true,
            "is_deletable": false,
            "is_editable": false,
            "is_pinned": false,
            "is_liked": true,
            "count_likes": 1,
            "count_replies": 0,
            "datetime_create": "2021-01-21T18:27:29.440156+07:00",
            "datetime_update": "2021-01-21T18:29:11.823129+07:00",
            "author_role": "User",
            "author": {
                "id": 9,
                "name": "Android 02 Application",
                "image": "https://release.conicle.co/media/account/2019/05/9cd317d2-61b.jpg"
            },
            "reply_list": []
        },
        {
            "id": 127,
            "body": "https://www.google.com/",
            "parent": null,
            "is_edited": false,
            "is_deletable": false,
            "is_editable": false,
            "is_pinned": false,
            "is_liked": true,
            "count_likes": 1,
            "count_replies": 0,
            "datetime_create": "2021-01-21T17:32:15.774636+07:00",
            "datetime_update": "2021-01-21T17:32:15.774580+07:00",
            "author_role": "User",
            "author": {
                "id": 9,
                "name": "Android 02 Application",
                "image": "https://release.conicle.co/media/account/2019/05/9cd317d2-61b.jpg"
            },
            "reply_list": []
        }
    ]
}
